%YAML 1.1
%TAG !u! tag:unity3d.com,2011:
--- !u!1 &172736
GameObject:
  m_ObjectHideFlags: 0
  m_CorrespondingSourceObject: {fileID: 0}
  m_PrefabInstance: {fileID: 0}
  m_PrefabAsset: {fileID: 0}
  serializedVersion: 6
  m_Component:
  - component: {fileID: 480316}
  m_Layer: 0
  m_Name: example_dust
  m_TagString: Untagged
  m_Icon: {fileID: 0}
  m_NavMeshLayer: 0
  m_StaticEditorFlags: 0
  m_IsActive: 1
--- !u!4 &480316
Transform:
  m_ObjectHideFlags: 0
  m_CorrespondingSourceObject: {fileID: 0}
  m_PrefabInstance: {fileID: 0}
  m_PrefabAsset: {fileID: 0}
  m_GameObject: {fileID: 172736}
  m_LocalRotation: {x: 0, y: 0, z: 0, w: 1}
  m_LocalPosition: {x: 0, y: 0, z: 0}
  m_LocalScale: {x: 1, y: 1, z: 1}
  m_Children:
  - {fileID: 470036}
  m_Father: {fileID: 0}
  m_RootOrder: 0
  m_LocalEulerAnglesHint: {x: 0, y: 0, z: 0}
--- !u!1001 &23030897333082159
PrefabInstance:
  m_ObjectHideFlags: 0
  serializedVersion: 2
  m_Modification:
    m_TransformParent: {fileID: 480316}
    m_Modifications:
    - target: {fileID: 23030897332892731, guid: d9f1346242a35ed4788d9e5add6796aa,
        type: 3}
      propertyPath: m_RootOrder
      value: 0
      objectReference: {fileID: 0}
    - target: {fileID: 23030897332892731, guid: d9f1346242a35ed4788d9e5add6796aa,
        type: 3}
      propertyPath: m_LocalPosition.x
      value: -0.56
      objectReference: {fileID: 0}
    - target: {fileID: 23030897332892731, guid: d9f1346242a35ed4788d9e5add6796aa,
        type: 3}
      propertyPath: m_LocalPosition.y
      value: 0.548
      objectReference: {fileID: 0}
    - target: {fileID: 23030897332892731, guid: d9f1346242a35ed4788d9e5add6796aa,
        type: 3}
      propertyPath: m_LocalPosition.z
      value: -6.32
      objectReference: {fileID: 0}
    - target: {fileID: 23030897332892731, guid: d9f1346242a35ed4788d9e5add6796aa,
        type: 3}
      propertyPath: m_LocalRotation.w
      value: 0.9900031
      objectReference: {fileID: 0}
    - target: {fileID: 23030897332892731, guid: d9f1346242a35ed4788d9e5add6796aa,
        type: 3}
      propertyPath: m_LocalRotation.x
      value: -2.1888215e-10
      objectReference: {fileID: 0}
    - target: {fileID: 23030897332892731, guid: d9f1346242a35ed4788d9e5add6796aa,
        type: 3}
      propertyPath: m_LocalRotation.y
      value: 0.14104542
      objectReference: {fileID: 0}
    - target: {fileID: 23030897332892731, guid: d9f1346242a35ed4788d9e5add6796aa,
        type: 3}
      propertyPath: m_LocalRotation.z
      value: 0.000000010534438
      objectReference: {fileID: 0}
    - target: {fileID: 23030897332892731, guid: d9f1346242a35ed4788d9e5add6796aa,
        type: 3}
      propertyPath: m_LocalEulerAnglesHint.x
      value: 0
      objectReference: {fileID: 0}
    - target: {fileID: 23030897332892731, guid: d9f1346242a35ed4788d9e5add6796aa,
        type: 3}
      propertyPath: m_LocalEulerAnglesHint.y
      value: 16.217001
      objectReference: {fileID: 0}
    - target: {fileID: 23030897332892731, guid: d9f1346242a35ed4788d9e5add6796aa,
        type: 3}
      propertyPath: m_LocalEulerAnglesHint.z
      value: 0
      objectReference: {fileID: 0}
    - target: {fileID: 23030897333198401, guid: d9f1346242a35ed4788d9e5add6796aa,
        type: 3}
      propertyPath: m_Name
      value: example1_lit
      objectReference: {fileID: 0}
    - target: {fileID: 23030897348111055, guid: d9f1346242a35ed4788d9e5add6796aa,
        type: 3}
      propertyPath: looping
      value: 0
      objectReference: {fileID: 0}
    - target: {fileID: 23030897348111055, guid: d9f1346242a35ed4788d9e5add6796aa,
        type: 3}
      propertyPath: prewarm
      value: 0
      objectReference: {fileID: 0}
    m_RemovedComponents: []
  m_SourcePrefab: {fileID: 100100000, guid: d9f1346242a35ed4788d9e5add6796aa, type: 3}
--- !u!4 &470036 stripped
Transform:
  m_CorrespondingSourceObject: {fileID: 23030897332892731, guid: d9f1346242a35ed4788d9e5add6796aa,
    type: 3}
  m_PrefabInstance: {fileID: 23030897333082159}
  m_PrefabAsset: {fileID: 0}
