%YAML 1.1
%TAG !u! tag:unity3d.com,2011:
--- !u!114 &11400000
MonoBehaviour:
  m_ObjectHideFlags: 0
  m_CorrespondingSourceObject: {fileID: 0}
  m_PrefabInstance: {fileID: 0}
  m_PrefabAsset: {fileID: 0}
  m_GameObject: {fileID: 0}
  m_Enabled: 1
  m_EditorHideFlags: 0
  m_Script: {fileID: 11500000, guid: 9d0d5653e623d9a43ad1d0ba1bc90807, type: 3}
  m_Name: AC2D387A-F529-4A53-A8C6-B16A66346B1D
  m_EditorClassIdentifier: 
  objectName: Arach_Attack
  id: 1019256087
  guid: AC2D387A-F529-4A53-A8C6-B16A66346B1D
