%YAML 1.1
%TAG !u! tag:unity3d.com,2011:
--- !u!114 &11400000
MonoBehaviour:
  m_ObjectHideFlags: 0
  m_CorrespondingSourceObject: {fileID: 0}
  m_PrefabInstance: {fileID: 0}
  m_PrefabAsset: {fileID: 0}
  m_GameObject: {fileID: 0}
  m_Enabled: 1
  m_EditorHideFlags: 0
  m_Script: {fileID: 11500000, guid: 9d0d5653e623d9a43ad1d0ba1bc90807, type: 3}
  m_Name: B9E8DE51-D602-4EF7-883D-A2FE50BF28BF
  m_EditorClassIdentifier: 
  objectName: Player_Foot
  id: 2532225481
  guid: B9E8DE51-D602-4EF7-883D-A2FE50BF28BF
