%YAML 1.1
%TAG !u! tag:unity3d.com,2011:
--- !u!114 &11400000
MonoBehaviour:
  m_ObjectHideFlags: 0
  m_CorrespondingSourceObject: {fileID: 0}
  m_PrefabInstance: {fileID: 0}
  m_PrefabAsset: {fileID: 0}
  m_GameObject: {fileID: 0}
  m_Enabled: 1
  m_EditorHideFlags: 0
  m_Script: {fileID: 11500000, guid: 9d0d5653e623d9a43ad1d0ba1bc90807, type: 3}
  m_Name: E9C39AFE-A005-48E7-9029-0DBBAF55E8D8
  m_EditorClassIdentifier: 
  objectName: Skeleton_Death
  id: 2670662143
  guid: E9C39AFE-A005-48E7-9029-0DBBAF55E8D8
