%YAML 1.1
%TAG !u! tag:unity3d.com,2011:
--- !u!114 &11400000
MonoBehaviour:
  m_ObjectHideFlags: 0
  m_CorrespondingSourceObject: {fileID: 0}
  m_PrefabInstance: {fileID: 0}
  m_PrefabAsset: {fileID: 0}
  m_GameObject: {fileID: 0}
  m_Enabled: 1
  m_EditorHideFlags: 0
  m_Script: {fileID: 11500000, guid: 8962b14a135b50f4390ae6b7439d05c4, type: 3}
  m_Name: E1128D02-5950-4DAE-9096-78CF19FFEF3A
  m_EditorClassIdentifier: 
  objectName: Music
  id: 3991942870
  guid: E1128D02-5950-4DAE-9096-78CF19FFEF3A
