# File exported by Houdini 18.5.596 (www.sidefx.com)
# 104 points
# 460 vertices
# 128 primitives
# Bounds: [-3.21643376, -40.3274727, -3.51717544] to [3.63546634, 0.345636874, 3.85846186]
g 
v 3.11743164 -0.435756356 2.05644846
v 3.45651674 -13.0980825 2.22547817
v 3.08601046 -26.6027107 2.20185661
v 3.20131826 -39.1358414 2.17662215
v 0.188697651 -38.7930412 3.8580296
v 0.108871102 -26.2169018 3.83695245
v 0.475163788 -12.7317877 3.85846186
v 0.128063321 -0.137436137 3.68789697
v 3.59016705 -13.1367159 2.00347447
v 3.25254202 -0.473530054 1.83457112
v 3.33058381 -0.997442067 -1.50428224
v 3.63546634 -13.643012 -1.37553716
v 3.26033688 -27.1287003 -1.40232968
v 3.35600281 -39.6563263 -1.3794744
v 3.33389807 -39.1718369 1.95355427
v 3.2193768 -26.6413612 1.9796865
v 3.50883102 -13.6655483 -1.60254252
v 3.20488954 -1.02952671 -1.7315321
v 0.252225131 -1.2654084 -3.51273298
v 0.571052611 -13.8177977 -3.3503561
v 0.195511594 -27.2564754 -3.37770629
v 0.293128312 -39.8415298 -3.35445619
v 3.22807646 -39.6861687 -1.60613036
v 3.13318467 -27.1547642 -1.62899208
v 0.310575426 -13.8018827 -3.3549993
v -0.00761518255 -1.26300383 -3.51717544
v -3.02648854 -0.959436715 -1.8390758
v -2.67078161 -13.4355879 -1.72201335
v -3.04211712 -26.8580875 -1.74714768
v -2.95050216 -39.4954071 -1.72445071
v 0.032612361 -39.8329086 -3.35914993
v -0.064972885 -27.2438965 -3.38224578
v -2.80444217 -13.3969498 -1.49998629
v -3.15944242 -0.923867702 -1.61624432
v -3.19109011 -0.401698023 1.71065521
v -2.84974217 -12.8906527 1.87902892
v -3.21643376 -26.3321018 1.85701728
v -3.15355062 -38.9709969 1.84264219
v -3.08509517 -39.4580116 -1.50239265
v -3.17547321 -26.8194408 -1.52500224
v -2.72287178 -12.8677387 2.10564709
v -3.06394482 -0.366324276 1.9370693
v -0.132254824 -0.133924365 3.68316698
v 0.214677051 -12.7161026 3.85380602
v -0.15160495 -26.2043247 3.832412
v -0.0714062825 -38.7855415 3.85353565
v -3.02728629 -38.943573 2.07008433
v -3.08927941 -26.306036 2.08369732
v 0.204699621 -39.064106 3.73554873
v 3.08233643 -39.3933296 2.13241529
v 2.88039756 -39.5938683 2.04437613
v 0.208613545 -39.2926064 3.50947165
v 3.22469425 -39.4345169 1.89321995
v 3.24820209 -39.9028473 -1.31397521
v 3.06558871 -40.0688324 -1.21174324
v 3.02244711 -39.6304359 1.80424714
v 3.09323955 -39.9427452 -1.55123079
v 0.308496475 -40.0904503 -3.20973182
v 0.306383103 -40.3274727 -2.88710904
v -2.53666735 -40.0060387 -1.32877553
v -2.58095098 -39.5607338 1.72774589
v 0.0700209737 -39.4202118 3.30647063
v 2.76487112 -39.7248993 1.82934129
v 2.81160092 -40.1946144 -1.39475501
v 0.0255801473 -40.0770912 -3.22680783
v -2.82229781 -39.7549324 -1.6661936
v -2.64649034 -39.923336 -1.5619247
v 0.0240293778 -40.2252197 -3.02528763
v -2.97967649 -39.7077141 -1.43562937
v -3.0437274 -39.237484 1.78410065
v -2.83364916 -39.4538536 1.69390917
v -2.78888726 -39.8925171 -1.3216902
v -2.90741777 -39.2052765 2.02938128
v -0.078390412 -39.0527496 3.73412108
v -0.0732260495 -39.2863121 3.50392962
v -2.69765949 -39.424942 1.93977606
v -0.152722821 0.112688318 3.53537035
v -2.9339776 -0.108077556 1.87921607
v -2.65740132 0.147046402 1.7197957
v -2.60144353 -0.358674914 -1.49870062
v 0.0988665372 -0.627925992 -2.97273493
v 2.74654722 -0.417851776 -1.39622509
v 2.69351578 0.0615826137 1.65497839
v -0.155297875 0.345636874 3.21004963
v -3.08810329 -0.153675213 1.64244401
v -3.05543613 -0.658278167 -1.55914044
v -2.85718131 -0.457780331 -1.47249901
v -2.90893245 0.0143141104 1.53832889
v -2.9122963 -0.699445069 -1.79789293
v -0.0289810337 -0.99113971 -3.39770699
v -0.0372488834 -0.760466993 -3.17429185
v -2.71443605 -0.494332701 -1.71224236
v 0.25429374 -0.996960819 -3.39617085
v 3.07979798 -0.769983888 -1.69384849
v 2.86592579 -0.553733408 -1.6067481
v 0.244678527 -0.761236966 -3.16874504
v 3.21545935 -0.732322037 -1.44896269
v 3.14221525 -0.22648564 1.76514804
v 2.94795847 -0.0470328592 1.6491785
v 3.00133324 -0.519360304 -1.36124003
v 2.98392916 -0.179693446 1.9952029
v 0.130422533 0.105016619 3.5525744
v 0.129037142 0.25056386 3.34941077
v 2.8049798 -0.0162095223 1.88909674
vt 0.649848759 0.00382560748 0
vt 0.650315106 0.0707103014 0
vt 0.614330888 0.00348809687 0
vt 0.486069769 0.138277501 0
vt 0.337333947 0.178287536 0
vt 0.333052456 0.137661412 0
vt 0.47979787 0.0943233147 0
vt 0.332609624 0.134541288 0
vt 0.326837003 0.0943191871 0
vt 0.47762081 0.0490704291 0
vt 0.326588482 0.091184631 0
vt 0.324932724 0.050107304 0
vt 0.477708668 0.0459051542 0
vt 0.325135499 0.0469455309 0
vt 0.329646796 0.00556009496 0
vt 0.481638879 0.268258929 0
vt 0.329608828 0.267290443 0
vt 0.33554107 0.226019979 0
vt 0.488294542 0.224540636 0
vt 0.335806668 0.222854063 0
vt 0.337523162 0.181438312 0
vt 0.173654899 0.179691285 0
vt 0.169351712 0.137860566 0
vt 0.16889739 0.134687737 0
vt 0.163043991 0.092863664 0
vt 0.162719354 0.0896846652 0
vt 0.161353752 0.0477126688 0
vt 0.161493942 0.0445340425 0
vt 0.166069821 0.0031543877 0
vt 0.166018799 0.268770576 0
vt 0.171880692 0.227624521 0
vt 0.172205955 0.224468574 0
vt 0.173778236 0.182867795 0
vt 0.0202724524 0.178756818 0
vt 0.016046362 0.136790738 0
vt 0.015610897 0.13362886 0
vt 0.00980194472 0.0930080041 0
vt 0.00945329666 0.0898353234 0
vt 0.0077813901 0.0482010394 0
vt 0.00790064503 0.0450269319 0
vt 0.0121010449 0.00358836097 0
vt 0.0120316641 0.267904401 0
vt 0.0181414485 0.227163494 0
vt 0.0184803642 0.223994538 0
vt 0.0203649774 0.181926295 0
vt 0.580285132 0.0374678522 0
vt 0.505089164 0.0383426175 0
vt 0.524490833 0.00381919998 0
vt 0.560008109 0.00339707523 0
vt 0.561873913 0.0702257827 0
vt 0.524293005 0.0706557408 0
vt 0.490251213 0.182906985 0
vt 0.487905324 0.227710053 0
vt 0.481719345 0.00391644752 0
vt 0.479473352 0.0911520496 0
vt 0.485608935 0.13511239 0
vt 0.490148008 0.179735959 0
vt 0.612733483 0.0703797638 0
vt 0.594238579 0.0376681276 0
vt 0.66934818 0.0382957608 0
vt 0.591446877 0.0358159766 0
vt 0.587890625 0.0353293382 0
vt 0.608066678 0.00143972912 0
vt 0.610241532 0.00384948333 0
vt 0.484866947 0.0436715856 0
vt 0.481220156 0.045011688 0
vt 0.48506397 0.00493347645 0
vt 0.48828721 0.00661959685 0
vt 0.48634994 0.0884940699 0
vt 0.482869148 0.0901507288 0
vt 0.481089652 0.0498967133 0
vt 0.484843165 0.0512577221 0
vt 0.492109179 0.13282676 0
vt 0.48891297 0.134297729 0
vt 0.483312458 0.0950360075 0
vt 0.48700878 0.0960439071 0
vt 0.653819382 0.00428077485 0
vt 0.655729651 0.0019268964 0
vt 0.675406396 0.0364260487 0
vt 0.672189176 0.0365858786 0
vt 0.496334046 0.221592382 0
vt 0.491729587 0.223488376 0
vt 0.493590534 0.18399483 0
vt 0.498005331 0.186063752 0
vt 0.0150828976 0.22299324 0
vt 0.0116000837 0.221333668 0
vt 0.0131349778 0.184102327 0
vt 0.0168933477 0.182745114 0
vt 0.00873570051 0.267065525 0
vt 0.00554703409 0.265572488 0
vt 0.0109169381 0.228830263 0
vt 0.0146248285 0.227850527 0
vt 0.518604219 0.00193548016 0
vt 0.520522356 0.00428581191 0
vt 0.502243996 0.0366409607 0
vt 0.499023438 0.0364896208 0
vt 0.00602334598 0.0887619182 0
vt 0.00142887339 0.0868342221 0
vt 0 0.0512972288 0
vt 0.00443219393 0.0492606908 0
vt 0.586623788 0.0350935049 0
vt 0.583066344 0.0356005616 0
vt 0.564099431 0.00373700354 0
vt 0.566265166 0.00131324166 0
vt 0.0167539753 0.177883089 0
vt 0.0130978255 0.176560551 0
vt 0.00948607642 0.139526367 0
vt 0.0127043342 0.13782227 0
vt 0.489522845 0.139285192 0
vt 0.49341467 0.178855434 0
vt 0.0121373348 0.132935107 0
vt 0.00653344812 0.0938444808 0
vt 0.330115348 0.0024032665 0
vt 0.482139945 0.000753304048 0
vt 0.166542158 0 0
vt 0.0125537366 0.000424239173 0
vt 0.00463381596 0.0441400185 0
vt 0.00864358619 0.00458165072 0
vt 0.491166502 0.228582203 0
vt 0.485121548 0.267606169 0
vt 0.00789447501 0.136489734 0
vt 0.0110743307 0.134806082 0
vt 0.00979186129 0.177114278 0
vt 0.00611322839 0.139664665 0
vt 0.0156665724 0.181160018 0
vt 0.0119269053 0.179749504 0
vt 0.00213997299 0.0908828527 0
vt 0.00514359167 0.0921358615 0
vt 0.521465182 0 0
vt 0.00761461072 0.228170797 0
vt 0.00217977702 0.265413314 0
vt 0.00976082776 0.183770359 0
vt 0.00821908005 0.221369818 0
vt 0.00388876279 0.268567175 0
vt 0.00681364257 0.269929886 0
vt 0.0101245688 0.224442586 0
vt 0.0135867307 0.226092294 0
vt 0.495596498 0.225636438 0
vt 0.492588371 0.226867914 0
vt 0.488176167 0.0442081355 0
vt 0.491660982 0.00674069347 0
vt 0.489731461 0.0885317922 0
vt 0.488218129 0.050929565 0
vt 0.495477617 0.1326897 0
vt 0.49031651 0.0954110399 0
vt 0.65286243 0 0
vt 0.489863664 0.00357484818 0
vt 0.486679018 0.00190905645 0
vt 0.486054629 0.0468545668 0
vt 0.482325435 0.0482827537 0
vt 0.487824053 0.0916041061 0
vt 0.484364212 0.0932507515 0
vt 0.493747115 0.135832712 0
vt 0.490816236 0.137174621 0
vt 0.486390024 0.135095045 0
vt 0.489710838 0.135840401 0
vt 0.480161428 0.0911561996 0
vt 0.483671755 0.0916134641 0
vt 0.478260249 0.0490230881 0
vt 0.48177439 0.0484189428 0
vt 0.481879205 0.271440774 0
vt 0.48535043 0.271026939 0
vt 0.488719136 0.227705553 0
vt 0.492012829 0.226963818 0
vt 0.0153367678 0.136808872 0
vt 0.0118690571 0.136352822 0
vt 0.0197364613 0.181881979 0
vt 0.0162185095 0.181293204 0
vt 0.00900571328 0.0929956287 0
vt 0.00571853761 0.0922353119 0
vt 0.00380534213 0.0458608381 0
vt 0.00710328668 0.0450979024 0
vt 0.00846873503 0.00113655697 0
vt 0.0117906863 0.000407094893 0
vt 0.014292052 0.224425316 0
vt 0.0178076867 0.223993987 0
vt 0.502192914 0.0400595851 0
vt 0.583278835 0.0390179344 0
vt 0.00978697184 0.225579709 0
vt 0.490951926 0.17981261 0
vt 0.494242549 0.180599183 0
vt 0.591253102 0.03923475 0
vt 0.488164872 0.0928025618 0
vt 0.672249734 0.0400047414 0
vn -0.00586089632 0.997092128 -0.0759798139
vn 0.0354541987 0.985411167 -0.166457102
vn -0.0232675243 0.992368817 -0.121089675
vn 0.513592541 0.034141928 0.857354641
vn 0.439168602 0.0107812751 0.898339987
vn 0.520791829 -0.00174461422 0.853681922
vn 0.99918133 0.0333086774 -0.0229614489
vn 0.997968853 0.00663717836 0.0633571893
vn 0.99943465 -0.0105886636 -0.0319116972
vn 0.482780606 0.00937204435 -0.875691175
vn 0.552855253 -0.00273794075 -0.833272815
vn 0.471731663 -0.00780280912 -0.881707609
vn -0.452936411 -0.0144254491 -0.891426206
vn -0.439629406 0.00207299553 -0.898176849
vn -0.523704529 -0.00901358761 -0.851852238
vn -0.998795092 -0.0196659584 -0.0449623615
vn -0.998103023 0.00879538245 -0.0609350167
vn -0.999294519 -0.00749003701 0.0368013643
vn -0.54209435 0.00564772915 0.840298712
vn -0.550589204 0.007513572 0.834742546
vn -0.47073558 0.0031196801 0.882268906
vn 0.520791829 -0.00174461422 0.853681922
vn 0.439429432 -0.00779477693 0.898243308
vn 0.523780704 -0.00342056411 0.851846278
vn 0.99943465 -0.0105886636 -0.0319116972
vn 0.997983217 -0.015566661 0.0615398474
vn 0.999318302 -0.00487472489 -0.0365961641
vn 0.471731663 -0.00780280912 -0.881707609
vn 0.550703287 -0.00806187093 -0.834662139
vn 0.470816672 -0.00261336053 -0.882227242
vn -0.439629406 0.00207299553 -0.898176849
vn -0.439201057 0.00173612183 -0.898387134
vn -0.520432532 0.00877941586 -0.853857756
vn -0.998103023 0.00879538245 -0.0609350167
vn -0.997964859 0.00607973104 -0.0634759963
vn -0.999364376 0.016586367 0.0315570086
vn -0.550589204 0.007513572 0.834742546
vn -0.552859306 0.00329461088 0.833268106
vn -0.471727252 0.00733640697 0.881713927
vn 0.523780704 -0.00342056411 0.851846278
vn 0.452545255 -0.00432297727 0.891730905
vn 0.542277753 -0.0111119989 0.840125799
vn 0.999318302 -0.00487472489 -0.0365961641
vn 0.998944283 -0.000291348813 0.0459388196
vn 0.998210549 -0.00863878895 -0.059169475
vn 0.470816672 -0.00261336053 -0.882227242
vn 0.542059779 -0.006523469 -0.840314627
vn 0.454755455 -0.0149835143 -0.890490294
vn -0.439201057 0.00173612183 -0.898387134
vn -0.423410922 -0.0211157165 -0.905691564
vn -0.513448119 -0.0140818721 -0.858005106
vn -0.997964859 0.00607973104 -0.0634759963
vn -0.996203005 -0.0226107035 -0.0840732381
vn -0.99965477 -0.0142763499 0.022057699
vn -0.552859306 0.00329461088 0.833268106
vn -0.570208788 -0.0177136678 0.821308851
vn -0.483027041 -0.0100145396 0.875548244
vn -0.0110836849 -0.987674952 0.156125858
vn -0.0550612472 -0.990052581 0.129476473
vn -0.0140941944 -0.99765861 0.0669222698
vn -0.0140941944 -0.99765861 0.0669222698
vn 0.110338673 -0.993836641 0.0106819374
vn -0.0110836849 -0.987674952 0.156125858
vn -0.0333532318 -0.982655883 0.182414055
vn -0.0550612472 -0.990052581 0.129476473
vn -0.0110836849 -0.987674952 0.156125858
vn -0.0333532318 -0.982655883 0.182414055
vn -0.116852283 -0.975190163 0.188015401
vn -0.0550612472 -0.990052581 0.129476473
vn -0.552859306 0.00329461088 0.833268106
vn -0.483027041 -0.0100145396 0.875548244
vn -0.471727252 0.00733640697 0.881713927
vn -0.997964859 0.00607973104 -0.0634759963
vn -0.99965477 -0.0142763499 0.022057699
vn -0.999364376 0.016586367 0.0315570086
vn -0.439201057 0.00173612183 -0.898387134
vn -0.513448119 -0.0140818721 -0.858005106
vn -0.520432532 0.00877941586 -0.853857756
vn 0.550703287 -0.00806187093 -0.834662139
vn 0.542059779 -0.006523469 -0.840314627
vn 0.470816672 -0.00261336053 -0.882227242
vn 0.997983217 -0.015566661 0.0615398474
vn 0.998944283 -0.000291348813 0.0459388196
vn 0.999318302 -0.00487472489 -0.0365961641
vn 0.439429432 -0.00779477693 0.898243308
vn 0.452545255 -0.00432297727 0.891730905
vn 0.523780704 -0.00342056411 0.851846278
vn -0.550589204 0.007513572 0.834742546
vn -0.471727252 0.00733640697 0.881713927
vn -0.47073558 0.0031196801 0.882268906
vn -0.998103023 0.00879538245 -0.0609350167
vn -0.999364376 0.016586367 0.0315570086
vn -0.999294519 -0.00749003701 0.0368013643
vn -0.439629406 0.00207299553 -0.898176849
vn -0.520432532 0.00877941586 -0.853857756
vn -0.523704529 -0.00901358761 -0.851852238
vn 0.552855253 -0.00273794075 -0.833272815
vn 0.550703287 -0.00806187093 -0.834662139
vn 0.471731663 -0.00780280912 -0.881707609
vn 0.997968853 0.00663717836 0.0633571893
vn 0.997983217 -0.015566661 0.0615398474
vn 0.99943465 -0.0105886636 -0.0319116972
vn 0.439168602 0.0107812751 0.898339987
vn 0.439429432 -0.00779477693 0.898243308
vn 0.520791829 -0.00174461422 0.853681922
vn -0.54209435 0.00564772915 0.840298712
vn -0.47073558 0.0031196801 0.882268906
vn -0.455036223 0.0164072216 0.890321732
vn -0.998795092 -0.0196659584 -0.0449623615
vn -0.999294519 -0.00749003701 0.0368013643
vn -0.998189509 -0.0102790184 0.059263058
vn -0.452936411 -0.0144254491 -0.891426206
vn -0.523704529 -0.00901358761 -0.851852238
vn -0.54252708 -0.0088737933 -0.83999151
vn 0.569933176 0.0193609688 -0.821462989
vn 0.552855253 -0.00273794075 -0.833272815
vn 0.482780606 0.00937204435 -0.875691175
vn 0.995584667 0.0429774672 0.0834515914
vn 0.997968853 0.00663717836 0.0633571893
vn 0.99918133 0.0333086774 -0.0229614489
vn 0.423033386 0.0400961339 0.905226469
vn 0.439168602 0.0107812751 0.898339987
vn 0.513592541 0.034141928 0.857354641
vn 0.0142652178 0.981200695 -0.192462415
vn -0.0692932382 0.977002978 -0.201652303
vn -0.0232675243 0.992368817 -0.121089675
vn 0.0354541987 0.985411167 -0.166457102
vn 0.0142652178 0.981200695 -0.192462415
vn -0.0232675243 0.992368817 -0.121089675
vn -0.00586089632 0.997092128 -0.0759798139
vn 0.097085759 0.99015826 -0.100802355
vn 0.0354541987 0.985411167 -0.166457102
vn -0.539296389 0.82735604 -0.15697585
vn -0.824889541 0.550312638 -0.129279703
vn -0.828029513 0.557657599 -0.0581836626
vn -0.545282722 0.829841435 -0.118448548
vn -0.233096972 0.763364077 -0.602446079
vn -0.353236794 0.496714801 -0.79277879
vn -0.409167349 0.497051835 -0.76519376
vn -0.26671347 0.765369833 -0.585724294
vn 0.299954385 0.767102897 -0.567080557
vn 0.438209772 0.51381737 -0.737538993
vn 0.384855092 0.511700809 -0.768146396
vn 0.267485917 0.765201032 -0.585592628
vn 0.552232623 0.827709317 -0.0996815786
vn 0.816411316 0.576115131 -0.0395454206
vn 0.813297451 0.572420537 -0.104317077
vn 0.55096823 0.823107541 -0.137578845
vn 0.276251405 0.879465401 0.387589842
vn 0.393926919 0.602368593 0.694243193
vn 0.457213134 0.59726119 0.65896523
vn 0.308217883 0.878741443 0.364438295
vn -0.0232675243 0.992368817 -0.121089675
vn -0.461505443 0.621485651 0.633062661
vn -0.40999952 0.624189615 0.665047169
vn -0.00586089632 0.997092128 -0.0759798139
vn -0.44835335 -0.513284206 0.731791377
vn -0.315105915 -0.767297566 0.558536172
vn -0.282584488 -0.766236782 0.577085078
vn -0.394982249 -0.51253587 0.762427747
vn -0.827533245 -0.560452402 0.0328912139
vn -0.568634391 -0.817638874 0.0901201814
vn -0.567285419 -0.813496947 0.128101125
vn -0.824358165 -0.557560503 0.0977747291
vn -0.405550271 -0.585946918 -0.701566279
vn -0.293425322 -0.869109511 -0.398183793
vn -0.325405985 -0.868035197 -0.375001162
vn -0.468717754 -0.580043852 -0.66622287
vn 0.449617326 -0.622573316 -0.640505195
vn 0.110338673 -0.993836641 0.0106819374
vn -0.0140941944 -0.99765861 0.0669222698
vn 0.398088932 -0.623875141 -0.672536314
vn 0.813912094 -0.567820609 0.12299075
vn 0.523485184 -0.839182615 0.147431135
vn 0.529432297 -0.841340899 0.108843721
vn 0.816933453 -0.574407279 0.051729992
vn 0.343504012 -0.512110174 0.787240803
vn 0.218323365 -0.774287641 0.593981087
vn 0.251922339 -0.776758134 0.577219069
vn 0.399404138 -0.513240337 0.759645164
vn 0.523780704 -0.00342056411 0.851846278
vn 0.997983217 -0.015566661 0.0615398474
vn 0.997968853 0.00663717836 0.0633571893
vn 0.520791829 -0.00174461422 0.853681922
vn 0.542277753 -0.0111119989 0.840125799
vn 0.998944283 -0.000291348813 0.0459388196
vn 0.997983217 -0.015566661 0.0615398474
vn 0.523780704 -0.00342056411 0.851846278
vn 0.452545255 -0.00432297727 0.891730905
vn 0.343504012 -0.512110174 0.787240803
vn 0.399404138 -0.513240337 0.759645164
vn 0.542277753 -0.0111119989 0.840125799
vn 0.439429432 -0.00779477693 0.898243308
vn -0.471727252 0.00733640697 0.881713927
vn -0.483027041 -0.0100145396 0.875548244
vn 0.452545255 -0.00432297727 0.891730905
vn 0.439168602 0.0107812751 0.898339987
vn -0.47073558 0.0031196801 0.882268906
vn -0.471727252 0.00733640697 0.881713927
vn 0.439429432 -0.00779477693 0.898243308
vn 0.423033386 0.0400961339 0.905226469
vn -0.455036223 0.0164072216 0.890321732
vn -0.47073558 0.0031196801 0.882268906
vn 0.439168602 0.0107812751 0.898339987
vn 0.513592541 0.034141928 0.857354641
vn 0.457213134 0.59726119 0.65896523
vn 0.393926919 0.602368593 0.694243193
vn 0.423033386 0.0400961339 0.905226469
vn 0.520791829 -0.00174461422 0.853681922
vn 0.997968853 0.00663717836 0.0633571893
vn 0.995584667 0.0429774672 0.0834515914
vn 0.513592541 0.034141928 0.857354641
vn 0.99918133 0.0333086774 -0.0229614489
vn 0.813297451 0.572420537 -0.104317077
vn 0.816411316 0.576115131 -0.0395454206
vn 0.995584667 0.0429774672 0.0834515914
vn 0.99943465 -0.0105886636 -0.0319116972
vn 0.552855253 -0.00273794075 -0.833272815
vn 0.569933176 0.0193609688 -0.821462989
vn 0.99918133 0.0333086774 -0.0229614489
vn 0.999318302 -0.00487472489 -0.0365961641
vn 0.550703287 -0.00806187093 -0.834662139
vn 0.552855253 -0.00273794075 -0.833272815
vn 0.99943465 -0.0105886636 -0.0319116972
vn 0.998210549 -0.00863878895 -0.059169475
vn 0.542059779 -0.006523469 -0.840314627
vn 0.550703287 -0.00806187093 -0.834662139
vn 0.999318302 -0.00487472489 -0.0365961641
vn 0.998944283 -0.000291348813 0.0459388196
vn 0.813912094 -0.567820609 0.12299075
vn 0.816933453 -0.574407279 0.051729992
vn 0.998210549 -0.00863878895 -0.059169475
vn 0.482780606 0.00937204435 -0.875691175
vn 0.384855092 0.511700809 -0.768146396
vn 0.438209772 0.51381737 -0.737538993
vn 0.569933176 0.0193609688 -0.821462989
vn 0.471731663 -0.00780280912 -0.881707609
vn -0.439629406 0.00207299553 -0.898176849
vn -0.452936411 -0.0144254491 -0.891426206
vn 0.482780606 0.00937204435 -0.875691175
vn 0.470816672 -0.00261336053 -0.882227242
vn -0.439201057 0.00173612183 -0.898387134
vn -0.439629406 0.00207299553 -0.898176849
vn 0.471731663 -0.00780280912 -0.881707609
vn 0.454755455 -0.0149835143 -0.890490294
vn -0.423410922 -0.0211157165 -0.905691564
vn -0.439201057 0.00173612183 -0.898387134
vn 0.470816672 -0.00261336053 -0.882227242
vn 0.542059779 -0.006523469 -0.840314627
vn 0.449617326 -0.622573316 -0.640505195
vn 0.398088932 -0.623875141 -0.672536314
vn 0.454755455 -0.0149835143 -0.890490294
vn -0.54252708 -0.0088737933 -0.83999151
vn -0.409167349 0.497051835 -0.76519376
vn -0.353236794 0.496714801 -0.79277879
vn -0.452936411 -0.0144254491 -0.891426206
vn -0.523704529 -0.00901358761 -0.851852238
vn -0.998103023 0.00879538245 -0.0609350167
vn -0.998795092 -0.0196659584 -0.0449623615
vn -0.54252708 -0.0088737933 -0.83999151
vn -0.520432532 0.00877941586 -0.853857756
vn -0.997964859 0.00607973104 -0.0634759963
vn -0.998103023 0.00879538245 -0.0609350167
vn -0.523704529 -0.00901358761 -0.851852238
vn -0.513448119 -0.0140818721 -0.858005106
vn -0.996203005 -0.0226107035 -0.0840732381
vn -0.997964859 0.00607973104 -0.0634759963
vn -0.520432532 0.00877941586 -0.853857756
vn -0.423410922 -0.0211157165 -0.905691564
vn -0.405550271 -0.585946918 -0.701566279
vn -0.468717754 -0.580043852 -0.66622287
vn -0.513448119 -0.0140818721 -0.858005106
vn -0.998189509 -0.0102790184 0.059263058
vn -0.828029513 0.557657599 -0.0581836626
vn -0.824889541 0.550312638 -0.129279703
vn -0.998795092 -0.0196659584 -0.0449623615
vn -0.999294519 -0.00749003701 0.0368013643
vn -0.550589204 0.007513572 0.834742546
vn -0.54209435 0.00564772915 0.840298712
vn -0.998189509 -0.0102790184 0.059263058
vn -0.999364376 0.016586367 0.0315570086
vn -0.552859306 0.00329461088 0.833268106
vn -0.550589204 0.007513572 0.834742546
vn -0.999294519 -0.00749003701 0.0368013643
vn -0.99965477 -0.0142763499 0.022057699
vn -0.570208788 -0.0177136678 0.821308851
vn -0.552859306 0.00329461088 0.833268106
vn -0.999364376 0.016586367 0.0315570086
vn -0.996203005 -0.0226107035 -0.0840732381
vn -0.827533245 -0.560452402 0.0328912139
vn -0.824358165 -0.557560503 0.0977747291
vn -0.99965477 -0.0142763499 0.022057699
vn -0.455036223 0.0164072216 0.890321732
vn -0.40999952 0.624189615 0.665047169
vn -0.461505443 0.621485651 0.633062661
vn -0.54209435 0.00564772915 0.840298712
vn -0.570208788 -0.0177136678 0.821308851
vn -0.44835335 -0.513284206 0.731791377
vn -0.394982249 -0.51253587 0.762427747
vn -0.483027041 -0.0100145396 0.875548244
vn 0.251922339 -0.776758134 0.577219069
vn 0.523485184 -0.839182615 0.147431135
vn 0.813912094 -0.567820609 0.12299075
vn 0.399404138 -0.513240337 0.759645164
vn 0.218323365 -0.774287641 0.593981087
vn -0.0333532318 -0.982655883 0.182414055
vn -0.0110836849 -0.987674952 0.156125858
vn 0.251922339 -0.776758134 0.577219069
vn 0.343504012 -0.512110174 0.787240803
vn -0.394982249 -0.51253587 0.762427747
vn -0.282584488 -0.766236782 0.577085078
vn 0.218323365 -0.774287641 0.593981087
vn 0.529432297 -0.841340899 0.108843721
vn 0.110338673 -0.993836641 0.0106819374
vn 0.449617326 -0.622573316 -0.640505195
vn 0.816933453 -0.574407279 0.051729992
vn 0.523485184 -0.839182615 0.147431135
vn -0.0110836849 -0.987674952 0.156125858
vn 0.110338673 -0.993836641 0.0106819374
vn 0.529432297 -0.841340899 0.108843721
vn -0.0140941944 -0.99765861 0.0669222698
vn -0.293425322 -0.869109511 -0.398183793
vn -0.405550271 -0.585946918 -0.701566279
vn 0.398088932 -0.623875141 -0.672536314
vn -0.0550612472 -0.990052581 0.129476473
vn -0.325405985 -0.868035197 -0.375001162
vn -0.293425322 -0.869109511 -0.398183793
vn -0.0140941944 -0.99765861 0.0669222698
vn -0.116852283 -0.975190163 0.188015401
vn -0.567285419 -0.813496947 0.128101125
vn -0.568634391 -0.817638874 0.0901201814
vn -0.0550612472 -0.990052581 0.129476473
vn -0.0333532318 -0.982655883 0.182414055
vn -0.282584488 -0.766236782 0.577085078
vn -0.315105915 -0.767297566 0.558536172
vn -0.116852283 -0.975190163 0.188015401
vn -0.325405985 -0.868035197 -0.375001162
vn -0.568634391 -0.817638874 0.0901201814
vn -0.827533245 -0.560452402 0.0328912139
vn -0.468717754 -0.580043852 -0.66622287
vn -0.567285419 -0.813496947 0.128101125
vn -0.315105915 -0.767297566 0.558536172
vn -0.44835335 -0.513284206 0.731791377
vn -0.824358165 -0.557560503 0.0977747291
vn -0.0232675243 0.992368817 -0.121089675
vn -0.545282722 0.829841435 -0.118448548
vn -0.828029513 0.557657599 -0.0581836626
vn -0.461505443 0.621485651 0.633062661
vn -0.0692932382 0.977002978 -0.201652303
vn -0.539296389 0.82735604 -0.15697585
vn -0.545282722 0.829841435 -0.118448548
vn -0.0232675243 0.992368817 -0.121089675
vn 0.0142652178 0.981200695 -0.192462415
vn -0.233096972 0.763364077 -0.602446079
vn -0.26671347 0.765369833 -0.585724294
vn -0.0692932382 0.977002978 -0.201652303
vn 0.0354541987 0.985411167 -0.166457102
vn 0.299954385 0.767102897 -0.567080557
vn 0.267485917 0.765201032 -0.585592628
vn 0.0142652178 0.981200695 -0.192462415
vn 0.097085759 0.99015826 -0.100802355
vn 0.552232623 0.827709317 -0.0996815786
vn 0.55096823 0.823107541 -0.137578845
vn 0.0354541987 0.985411167 -0.166457102
vn -0.00586089632 0.997092128 -0.0759798139
vn 0.276251405 0.879465401 0.387589842
vn 0.308217883 0.878741443 0.364438295
vn 0.097085759 0.99015826 -0.100802355
vn -0.40999952 0.624189615 0.665047169
vn 0.393926919 0.602368593 0.694243193
vn 0.276251405 0.879465401 0.387589842
vn -0.00586089632 0.997092128 -0.0759798139
vn -0.539296389 0.82735604 -0.15697585
vn -0.26671347 0.765369833 -0.585724294
vn -0.409167349 0.497051835 -0.76519376
vn -0.824889541 0.550312638 -0.129279703
vn -0.233096972 0.763364077 -0.602446079
vn 0.267485917 0.765201032 -0.585592628
vn 0.384855092 0.511700809 -0.768146396
vn -0.353236794 0.496714801 -0.79277879
vn 0.299954385 0.767102897 -0.567080557
vn 0.55096823 0.823107541 -0.137578845
vn 0.813297451 0.572420537 -0.104317077
vn 0.438209772 0.51381737 -0.737538993
vn 0.552232623 0.827709317 -0.0996815786
vn 0.308217883 0.878741443 0.364438295
vn 0.457213134 0.59726119 0.65896523
vn 0.816411316 0.576115131 -0.0395454206
vn 0.513592541 0.034141928 0.857354641
vn 0.995584667 0.0429774672 0.0834515914
vn 0.816411316 0.576115131 -0.0395454206
vn 0.457213134 0.59726119 0.65896523
vn 0.99918133 0.0333086774 -0.0229614489
vn 0.569933176 0.0193609688 -0.821462989
vn 0.438209772 0.51381737 -0.737538993
vn 0.813297451 0.572420537 -0.104317077
vn 0.482780606 0.00937204435 -0.875691175
vn -0.452936411 -0.0144254491 -0.891426206
vn -0.353236794 0.496714801 -0.79277879
vn 0.384855092 0.511700809 -0.768146396
vn -0.54252708 -0.0088737933 -0.83999151
vn -0.998795092 -0.0196659584 -0.0449623615
vn -0.824889541 0.550312638 -0.129279703
vn -0.409167349 0.497051835 -0.76519376
vn -0.998189509 -0.0102790184 0.059263058
vn -0.54209435 0.00564772915 0.840298712
vn -0.461505443 0.621485651 0.633062661
vn -0.828029513 0.557657599 -0.0581836626
vn 0.542277753 -0.0111119989 0.840125799
vn 0.399404138 -0.513240337 0.759645164
vn 0.813912094 -0.567820609 0.12299075
vn 0.998944283 -0.000291348813 0.0459388196
vn 0.452545255 -0.00432297727 0.891730905
vn -0.483027041 -0.0100145396 0.875548244
vn -0.394982249 -0.51253587 0.762427747
vn 0.343504012 -0.512110174 0.787240803
vn 0.998210549 -0.00863878895 -0.059169475
vn 0.816933453 -0.574407279 0.051729992
vn 0.449617326 -0.622573316 -0.640505195
vn 0.542059779 -0.006523469 -0.840314627
vn 0.454755455 -0.0149835143 -0.890490294
vn 0.398088932 -0.623875141 -0.672536314
vn -0.405550271 -0.585946918 -0.701566279
vn -0.423410922 -0.0211157165 -0.905691564
vn -0.513448119 -0.0140818721 -0.858005106
vn -0.468717754 -0.580043852 -0.66622287
vn -0.827533245 -0.560452402 0.0328912139
vn -0.996203005 -0.0226107035 -0.0840732381
vn -0.99965477 -0.0142763499 0.022057699
vn -0.824358165 -0.557560503 0.0977747291
vn -0.44835335 -0.513284206 0.731791377
vn -0.570208788 -0.0177136678 0.821308851
vn -0.0550612472 -0.990052581 0.129476473
vn -0.568634391 -0.817638874 0.0901201814
vn -0.325405985 -0.868035197 -0.375001162
vn 0.251922339 -0.776758134 0.577219069
vn -0.0110836849 -0.987674952 0.156125858
vn 0.523485184 -0.839182615 0.147431135
vn 0.218323365 -0.774287641 0.593981087
vn -0.282584488 -0.766236782 0.577085078
vn -0.0333532318 -0.982655883 0.182414055
vn -0.116852283 -0.975190163 0.188015401
vn -0.315105915 -0.767297566 0.558536172
vn -0.567285419 -0.813496947 0.128101125
vn 0.423033386 0.0400961339 0.905226469
vn 0.393926919 0.602368593 0.694243193
vn -0.40999952 0.624189615 0.665047169
vn -0.455036223 0.0164072216 0.890321732
vn -0.0692932382 0.977002978 -0.201652303
vn -0.26671347 0.765369833 -0.585724294
vn -0.539296389 0.82735604 -0.15697585
vn 0.0142652178 0.981200695 -0.192462415
vn 0.267485917 0.765201032 -0.585592628
vn -0.233096972 0.763364077 -0.602446079
vn 0.0354541987 0.985411167 -0.166457102
vn 0.55096823 0.823107541 -0.137578845
vn 0.299954385 0.767102897 -0.567080557
vn 0.097085759 0.99015826 -0.100802355
vn 0.308217883 0.878741443 0.364438295
vn 0.552232623 0.827709317 -0.0996815786
g 
f 84/1/1 82/2/2 79/3/3
f 1/4/4 7/5/5 2/6/6
f 11/7/7 9/8/8 12/9/9
f 19/10/10 17/11/11 20/12/12
f 26/13/13 25/14/14 28/15/15
f 34/16/16 33/17/17 36/18/18
f 42/19/19 41/20/20 44/21/21
f 2/6/22 6/22/23 3/23/24
f 12/9/25 16/24/26 13/25/27
f 20/12/28 24/26/29 21/27/30
f 25/14/31 32/28/32 29/29/33
f 33/17/34 40/30/35 37/31/36
f 41/20/37 48/32/38 45/33/39
f 3/23/40 5/34/41 4/35/42
f 13/25/43 15/36/44 14/37/45
f 21/27/46 23/38/47 22/39/48
f 32/28/49 31/40/50 30/41/51
f 40/30/52 39/42/53 38/43/54
f 48/32/55 47/44/56 46/45/57
f 63/46/58 60/47/59 59/48/60
f 59/48/61 64/49/62 63/46/63
f 62/50/64 60/47/65 63/46/66
f 62/50/67 61/51/68 60/47/69
f 48/32/70 46/45/71 45/33/72
f 40/30/73 38/43/74 37/31/75
f 32/28/76 30/41/77 29/29/78
f 24/26/79 23/38/80 21/27/81
f 16/24/82 15/36/83 13/25/84
f 6/22/85 5/34/86 3/23/87
f 41/20/88 45/33/89 44/21/90
f 33/17/91 37/31/92 36/18/93
f 25/14/94 29/29/95 28/15/96
f 17/11/97 24/26/98 20/12/99
f 9/8/100 16/24/101 12/9/102
f 7/5/103 6/22/104 2/6/105
f 42/19/106 44/21/107 43/52/108
f 34/16/109 36/18/110 35/53/111
f 26/13/112 28/15/113 27/54/114
f 18/55/115 17/11/116 19/10/117
f 10/56/118 9/8/119 11/7/120
f 8/57/121 7/5/122 1/4/123
f 81/58/124 80/59/125 79/3/126
f 82/2/127 81/58/128 79/3/129
f 84/1/130 83/60/131 82/2/132
f 87/61/133 86/62/134 85/63/135 88/64/136
f 91/65/137 90/66/138 89/67/139 92/68/140
f 95/69/141 94/70/142 93/71/143 96/72/144
f 99/73/145 98/74/146 97/75/147 100/76/148
f 103/77/149 102/78/150 101/79/151 104/80/152
f 79/81/153 78/82/154 77/83/155 84/84/156
f 73/85/157 76/86/158 75/87/159 74/88/160
f 69/89/161 72/90/162 71/91/163 70/92/164
f 65/93/165 68/94/166 67/95/167 66/96/168
f 57/97/169 64/98/170 59/99/171 58/100/172
f 53/101/173 56/102/174 55/103/175 54/104/176
f 49/105/177 52/106/178 51/107/179 50/108/180
f 3/23/181 16/24/182 9/8/183 2/6/184
f 4/35/185 15/36/186 16/24/187 3/23/188
f 5/34/189 49/105/190 50/108/191 4/35/192
f 6/22/193 45/33/194 46/45/195 5/34/196
f 7/5/197 44/21/198 45/33/199 6/22/200
f 8/57/201 43/52/202 44/21/203 7/5/204
f 1/4/205 101/109/206 102/110/207 8/57/208
f 2/6/209 9/8/210 10/56/211 1/4/212
f 11/7/213 97/75/214 98/74/215 10/56/216
f 12/9/217 17/11/218 18/55/219 11/7/220
f 13/25/221 24/26/222 17/11/223 12/9/224
f 14/37/225 23/38/226 24/26/227 13/25/228
f 15/36/229 53/111/230 54/112/231 14/37/232
f 19/10/233 93/71/234 94/70/235 18/55/236
f 20/12/237 25/14/238 26/13/239 19/10/240
f 21/27/241 32/28/242 25/14/243 20/12/244
f 22/39/245 31/40/246 32/28/247 21/27/248
f 23/38/249 57/97/250 58/100/251 22/39/252
f 27/54/253 89/67/254 90/66/255 26/13/256
f 28/15/257 33/113/258 34/114/259 27/54/260
f 29/29/261 40/115/262 33/113/263 28/15/264
f 30/41/265 39/116/266 40/115/267 29/29/268
f 31/40/269 65/117/270 66/118/271 30/41/272
f 35/53/273 85/119/274 86/120/275 34/16/276
f 36/18/277 41/20/278 42/19/279 35/53/280
f 37/31/281 48/32/282 41/20/283 36/18/284
f 38/43/285 47/44/286 48/32/287 37/31/288
f 39/42/289 69/89/290 70/92/291 38/43/292
f 43/52/293 77/83/294 78/82/295 42/19/296
f 47/44/297 73/85/298 74/88/299 46/45/300
f 51/107/301 56/121/302 53/122/303 50/108/304
f 52/106/305 62/123/306 63/124/307 51/107/308
f 49/105/309 74/125/310 75/126/311 52/106/312
f 55/127/313 64/98/314 57/97/315 54/128/316
f 56/102/317 63/46/318 64/49/319 55/103/320
f 59/48/321 68/94/322 65/93/323 58/129/324
f 60/47/325 67/95/326 68/94/327 59/48/328
f 61/130/329 71/91/330 72/90/331 60/131/332
f 62/132/333 75/87/334 76/86/335 61/133/336
f 67/134/337 72/90/338 69/89/339 66/135/340
f 71/136/341 76/86/342 73/85/343 70/137/344
f 79/81/345 88/138/346 85/139/347 78/82/348
f 80/59/349 87/61/350 88/64/351 79/3/352
f 81/140/353 91/65/354 92/68/355 80/141/356
f 82/142/357 95/69/358 96/72/359 81/143/360
f 83/144/361 99/73/362 100/76/363 82/145/364
f 84/1/365 103/77/366 104/80/367 83/60/368
f 77/146/369 102/78/370 103/77/371 84/1/372
f 87/147/373 92/68/374 89/67/375 86/148/376
f 91/65/377 96/149/378 93/150/379 90/66/380
f 95/69/381 100/151/382 97/152/383 94/70/384
f 99/73/385 104/153/386 101/154/387 98/74/388
f 1/4/389 10/155/390 98/156/391 101/109/392
f 11/7/393 18/157/394 94/158/395 97/75/396
f 19/159/397 26/13/398 90/66/399 93/160/400
f 27/161/401 34/16/402 86/120/403 89/162/404
f 35/163/405 42/19/406 78/82/407 85/164/408
f 4/165/409 50/166/410 53/111/411 15/36/412
f 5/34/413 46/167/414 74/168/415 49/105/416
f 14/169/417 54/170/418 57/97/419 23/38/420
f 22/39/421 58/100/422 65/171/423 31/172/424
f 30/41/425 66/118/426 69/173/427 39/174/428
f 38/43/429 70/92/430 73/175/431 47/176/432
f 60/47/433 72/177/434 67/95/435
f 51/178/436 63/46/437 56/102/438
f 52/106/439 75/126/440 62/123/441
f 61/130/442 76/179/443 71/91/444
f 8/180/445 102/181/446 77/83/447 43/52/448
f 80/59/449 92/182/450 87/61/451
f 81/140/452 96/149/453 91/65/454
f 82/145/455 100/76/456 95/183/457
f 83/60/458 104/80/459 99/184/460
